%YAML 1.1
%TAG !u! tag:unity3d.com,2011:
--- !u!114 &11400000
MonoBehaviour:
  m_ObjectHideFlags: 0
  m_PrefabParentObject: {fileID: 0}
  m_PrefabInternal: {fileID: 0}
  m_GameObject: {fileID: 0}
  m_Enabled: 1
  m_EditorHideFlags: 0
  m_Script: {fileID: 11500000, guid: cb72a9cc1982468498f31ae8e667b603, type: 3}
  m_Name: Horns
  m_EditorClassIdentifier: 
  type: 1
  elements:
  - prefab: {fileID: 0}
    prefabUI: {fileID: 0}
    value: 1
    cost: 0
    chance: 3
  - prefab: {fileID: 1260146019122982, guid: a942b59d50adedd488f9794c0346c9e0, type: 2}
    prefabUI: {fileID: 1726612410568010, guid: ac73b0e75578f3043ae8c5eac9bf23d8, type: 2}
    value: 2
    cost: 1
    chance: 2
  - prefab: {fileID: 1799184815935912, guid: 65ac70bcf97bcbb47b53d95da0dcbf3b, type: 2}
    prefabUI: {fileID: 1487746395672470, guid: d7898e23ac748954d8df6b7607afa9de, type: 2}
    value: 3
    cost: 2
    chance: 1
  - prefab: {fileID: 1581647710987708, guid: 93b6fdb2a13377c43a716f37ab35689b, type: 2}
    prefabUI: {fileID: 1270733510813072, guid: 4b0f9a62fe5a43b4e8adc0cca14fea7b, type: 2}
    value: 4
    cost: 3
    chance: 0.5
